<?xml version="1.0" encoding="UTF-8" standalone="no"?>
<!-- Created with Inkscape (http://www.inkscape.org/) -->

<svg
   xmlns:i="http://ns.adobe.com/AdobeIllustrator/10.0/"
   xmlns:dc="http://purl.org/dc/elements/1.1/"
   xmlns:cc="http://creativecommons.org/ns#"
   xmlns:rdf="http://www.w3.org/1999/02/22-rdf-syntax-ns#"
   xmlns:svg="http://www.w3.org/2000/svg"
   xmlns="http://www.w3.org/2000/svg"
   xmlns:sodipodi="http://sodipodi.sourceforge.net/DTD/sodipodi-0.dtd"
   xmlns:inkscape="http://www.inkscape.org/namespaces/inkscape"
   width="210mm"
   height="297mm"
   viewBox="0 0 744.09448819 1052.3622047"
   id="svg4319"
   version="1.1"
   inkscape:version="0.91 r13725"
   sodipodi:docname="Logo_ardoise-carré.svg"
   inkscape:export-filename="/home/vincent/framadrive/PrimTux/logo et mascotte/LOGO_ARDOISE2.png"
   inkscape:export-xdpi="90"
   inkscape:export-ydpi="90">
  <defs
     id="defs4321">
    <filter
       inkscape:label="Clouds"
       inkscape:menu="Overlays"
       inkscape:menu-tooltip="Airy, fluffy, sparse white clouds"
       style="color-interpolation-filters:sRGB;"
       id="filter4218">
      <feTurbulence
         numOctaves="8"
         baseFrequency="0.0070000000000000001 0.83199999999999996"
         type="turbulence"
         id="feTurbulence4220"
         seed="423" />
      <feColorMatrix
         result="result0"
         values="1 0 0 0 0 0 1 0 0 0 0 0 1 0 0 0 0 0 5 -2.7"
         id="feColorMatrix4222" />
      <feFlood
         flood-opacity="1"
         flood-color="rgb(164,126,42)"
         id="feFlood4224" />
      <feComposite
         operator="in"
         in2="result0"
         id="feComposite4226" />
      <feComposite
         operator="atop"
         in2="SourceGraphic"
         id="feComposite4228" />
    </filter>
    <inkscape:path-effect
       effect="spiro"
       id="path-effect4181-4-1"
       is_visible="true" />
  </defs>
  <sodipodi:namedview
     id="base"
     pagecolor="#ffffff"
     bordercolor="#666666"
     borderopacity="1.0"
     inkscape:pageopacity="0.0"
     inkscape:pageshadow="2"
     inkscape:zoom="3.5822505"
     inkscape:cx="336.77415"
     inkscape:cy="527.41024"
     inkscape:document-units="px"
     inkscape:current-layer="g4328"
     showgrid="false"
     inkscape:window-width="1855"
     inkscape:window-height="1176"
     inkscape:window-x="65"
     inkscape:window-y="24"
     inkscape:window-maximized="1" />
  <metadata
     id="metadata4324">
    <rdf:RDF>
      <cc:Work
         rdf:about="">
        <dc:format>image/svg+xml</dc:format>
        <dc:type
           rdf:resource="http://purl.org/dc/dcmitype/StillImage" />
        <dc:title></dc:title>
      </cc:Work>
    </rdf:RDF>
  </metadata>
  <g
     style="display:inline"
     inkscape:label="Vertical"
     id="g4214"
     inkscape:groupmode="layer" />
  <g
     inkscape:groupmode="layer"
     id="g4223"
     inkscape:label="Horizontal"
     style="display:inline" />
  <g
     style="display:inline"
     id="g4328"
     inkscape:groupmode="layer"
     inkscape:label="Tux">
    <g
       id="g4234"
       transform="matrix(1.0241158,0,0,0.76512938,-8.9722042,123.58447)">
      <rect
         inkscape:export-ydpi="90"
         inkscape:export-xdpi="90"
         style="color:#000000;clip-rule:nonzero;display:inline;overflow:visible;visibility:visible;opacity:1;isolation:auto;mix-blend-mode:normal;color-interpolation:sRGB;color-interpolation-filters:linearRGB;solid-color:#000000;solid-opacity:1;fill:#eac88b;fill-opacity:1;fill-rule:nonzero;stroke:none;stroke-width:0.30000001;stroke-linecap:butt;stroke-linejoin:miter;stroke-miterlimit:4;stroke-dasharray:none;stroke-dashoffset:0;stroke-opacity:1;filter:url(#filter4218);color-rendering:auto;image-rendering:auto;shape-rendering:auto;text-rendering:auto;enable-background:accumulate"
         id="rect4216"
         width="113.92374"
         height="152.48514"
         x="315.08536"
         y="449.93854"
         rx="7.6947823"
         ry="10.772261" />
      <rect
         transform="matrix(0,-1.161314,0.74666569,0,63.334006,991.38091)"
         ry="7.6947823"
         rx="10.299368"
         y="337.2132"
         x="343.61868"
         height="152.48514"
         width="113.92374"
         id="rect4225"
         style="color:#000000;clip-rule:nonzero;display:inline;overflow:visible;visibility:visible;opacity:1;isolation:auto;mix-blend-mode:normal;color-interpolation:sRGB;color-interpolation-filters:linearRGB;solid-color:#000000;solid-opacity:1;fill:#eac88b;fill-opacity:1;fill-rule:nonzero;stroke:none;stroke-width:0.30000001;stroke-linecap:butt;stroke-linejoin:miter;stroke-miterlimit:4;stroke-dasharray:none;stroke-dashoffset:0;stroke-opacity:1;filter:url(#filter4218);color-rendering:auto;image-rendering:auto;shape-rendering:auto;text-rendering:auto;enable-background:accumulate" />
      <rect
         style="color:#000000;clip-rule:nonzero;display:inline;overflow:visible;visibility:visible;opacity:1;isolation:auto;mix-blend-mode:normal;color-interpolation:sRGB;color-interpolation-filters:linearRGB;solid-color:#000000;solid-opacity:1;fill:#223656;fill-opacity:1;fill-rule:nonzero;stroke:none;stroke-width:0.30000001;stroke-linecap:butt;stroke-linejoin:miter;stroke-miterlimit:4;stroke-dasharray:none;stroke-dashoffset:0;stroke-opacity:1;color-rendering:auto;image-rendering:auto;shape-rendering:auto;text-rendering:auto;enable-background:accumulate"
         id="rect4332"
         width="95.736099"
         height="134.87952"
         x="324.1792"
         y="458.74133"
         rx="6.4663296"
         ry="9.5285168" />
    </g>
    <path
       d="m 449.23113,441.97764 c 0,30.47001 -10.927,39.00001 -24.5,39.00001 l -46,0 c -13.573,0 -24.5,-8.53 -24.5,-39.00001 0,-30.47 10.927,-55 24.5,-55 l 46,0 c 13.573,0 24.5,24.53 24.5,55 z"
       inkscape:connector-curvature="0"
       style="fill:#ffffff;fill-opacity:0"
       sodipodi:nodetypes="sssssss"
       id="path4334" />
    <g
       id="g4219"
       transform="translate(-0.47599925,19.140176)">
      <g
         style="stroke:none;stroke-width:0.81243098;stroke-miterlimit:4;stroke-dasharray:none;stroke-opacity:1"
         id="g4338"
         transform="matrix(0.36743629,0,0,0.36630676,274.73735,351.8343)">
        <path
           inkscape:connector-curvature="0"
           id="path4340"
           d="m 302.62824,303.46665 a 45.159317,50.375458 0 0 0 -40.54492,28.33398 42.557026,39.439411 0 0 0 -35.05078,-17.14648 42.557026,39.439411 0 0 0 -42.55859,39.43945 42.557026,39.439411 0 0 0 42.55859,39.43945 42.557026,39.439411 0 0 0 35.18164,-17.25976 45.159317,50.375458 0 0 0 40.41406,27.94336 45.159317,50.375458 0 0 0 45.15821,-50.375 45.159317,50.375458 0 0 0 -45.15821,-50.375 z"
           style="fill:#ffffff;fill-opacity:1;stroke:none;stroke-width:0.81243098;stroke-miterlimit:4;stroke-dasharray:none;stroke-dashoffset:0;stroke-opacity:1" />
        <g
           style="stroke:none;stroke-width:0.81243098;stroke-miterlimit:4;stroke-dasharray:none;stroke-opacity:1"
           transform="translate(0.57173465,3.755099e-8)"
           id="g4342">
          <g
             style="stroke:none;stroke-width:0.51167119;stroke-miterlimit:4;stroke-dasharray:none;stroke-opacity:1"
             id="g4344"
             transform="matrix(1.5877991,0,0,1.5877991,69.345601,-303.11476)">
            <circle
               r="6.7857141"
               cy="415.57648"
               cx="113.21429"
               id="circle4346"
               style="fill:#000000;fill-opacity:1;stroke:none;stroke-width:0.51167119;stroke-miterlimit:4;stroke-dasharray:none;stroke-dashoffset:0;stroke-opacity:1" />
            <circle
               r="3.0357144"
               cy="412.89792"
               cx="114.46429"
               id="circle4348"
               style="fill:#ffffff;fill-opacity:1;stroke:none;stroke-width:0.51167119;stroke-miterlimit:4;stroke-dasharray:none;stroke-dashoffset:0;stroke-opacity:1" />
          </g>
          <g
             style="stroke:none;stroke-width:0.51167119;stroke-miterlimit:4;stroke-dasharray:none;stroke-opacity:1"
             id="g4350"
             transform="matrix(1.5877991,0,0,1.5877991,94.167029,-303.11476)">
            <circle
               r="6.7857141"
               cy="415.57648"
               cx="113.21429"
               id="circle4352"
               style="fill:#000000;fill-opacity:1;stroke:none;stroke-width:0.51167119;stroke-miterlimit:4;stroke-dasharray:none;stroke-dashoffset:0;stroke-opacity:1" />
            <circle
               r="3.0357144"
               cy="412.89792"
               cx="114.46429"
               id="circle4354"
               style="fill:#ffffff;fill-opacity:1;stroke:none;stroke-width:0.51167119;stroke-miterlimit:4;stroke-dasharray:none;stroke-dashoffset:0;stroke-opacity:1" />
          </g>
        </g>
      </g>
      <path
         sodipodi:type="star"
         style="fill:#fed500;fill-opacity:1;stroke:none;stroke-width:1.29954445;stroke-miterlimit:4;stroke-dasharray:none;stroke-dashoffset:0;stroke-opacity:1"
         id="path4356"
         sodipodi:sides="3"
         sodipodi:cx="117.93531"
         sodipodi:cy="455.1095"
         sodipodi:r1="52.49514"
         sodipodi:r2="32.502686"
         sodipodi:arg1="0.66948179"
         sodipodi:arg2="1.5749189"
         inkscape:flatsided="true"
         inkscape:rounded="0.22"
         inkscape:randomized="0"
         d="m 159.09903,487.68692 c -12.41367,15.68548 -82.581256,5.37598 -89.95845,-13.21731 -7.377194,-18.59329 36.63489,-74.20545 56.42575,-71.29765 19.79085,2.90781 45.94636,68.82947 33.5327,84.51496 z"
         inkscape:transform-center-x="-0.5949346"
         inkscape:transform-center-y="0.74489537"
         transform="matrix(0.25461519,0.02800074,0.03572765,-0.19954888,326.26562,588.02219)" />
      <path
         id="path4364"
         d="m 360.93087,498.46802 c 1.5711,2.71996 5.94517,10.38224 11.36937,10.38224 5.42375,0 10.24441,-7.66241 11.81538,-10.38224 -2.3421,2.14822 -6.87819,7.95711 -11.81538,7.95711 -4.93719,0 -9.02705,-5.80889 -11.36937,-7.95711 z"
         style="fill:#876108"
         inkscape:connector-curvature="0"
         sodipodi:nodetypes="cscsc" />
    </g>
    <g
       transform="matrix(0.83886347,0,0,0.77450468,58.87414,218.12054)"
       id="g4218"
       inkscape:export-filename="/home/stephane/g4218.png"
       inkscape:export-xdpi="90"
       inkscape:export-ydpi="90">
      <path
         style="fill:none;fill-rule:evenodd;stroke:#ffffff;stroke-width:0.73924786;stroke-linecap:round;stroke-linejoin:miter;stroke-miterlimit:4;stroke-dasharray:none;stroke-opacity:1"
         d="m 326.40053,450.4716 c 1.04609,0.49697 2.20777,0.74863 3.36575,0.72912 1.56824,-0.0264 3.1241,-0.55687 4.38187,-1.49393 1.25777,-0.93707 2.21122,-2.27611 2.68525,-3.77122"
         id="path4179"
         inkscape:path-effect="#path-effect4181-4-1"
         inkscape:original-d="m 326.40053,450.4716 c 14.61957,-3.76712 20.9784,96.42568 3.36575,0.72912 -4.72962,-25.69765 7.06712,-5.26515 7.06712,-5.26515"
         inkscape:connector-curvature="0"
         sodipodi:nodetypes="csc" />
      <g
         id="g4165"
         transform="matrix(1.0967561,0,0,1.0967561,-57.750227,-29.486146)"
         style="fill:#ffffff;fill-opacity:1">
        <text
           sodipodi:linespacing="125%"
           id="text4279"
           y="438.22382"
           x="359.47415"
           style="font-style:normal;font-weight:normal;font-size:17.5px;line-height:125%;font-family:sans-serif;letter-spacing:0px;word-spacing:0px;fill:#ffffff;fill-opacity:1;stroke:none;stroke-width:1px;stroke-linecap:butt;stroke-linejoin:miter;stroke-opacity:1"
           xml:space="preserve"><tspan
             style="font-style:normal;font-variant:normal;font-weight:normal;font-stretch:normal;font-size:25px;font-family:Cursif;-inkscape-font-specification:Cursif;fill:#ffffff;fill-opacity:1"
             y="438.22382"
             x="359.47415"
             id="tspan4281"
             sodipodi:role="line">rim</tspan></text>
        <text
           sodipodi:linespacing="125%"
           id="text4155"
           y="438.2305"
           x="387.42859"
           style="font-style:normal;font-weight:normal;font-size:40px;line-height:125%;font-family:sans-serif;letter-spacing:0px;word-spacing:0px;fill:#ffffff;fill-opacity:1;stroke:none;stroke-width:1px;stroke-linecap:butt;stroke-linejoin:miter;stroke-opacity:1"
           xml:space="preserve"><tspan
             style="font-style:normal;font-variant:normal;font-weight:normal;font-stretch:normal;font-size:25px;font-family:Cursif;-inkscape-font-specification:Cursif;fill:#ffffff;fill-opacity:1"
             y="438.2305"
             x="387.42859"
             id="tspan4157"
             sodipodi:role="line">Tux</tspan></text>
      </g>
      <path
         id="path4252-4"
         d="m 379.81271,421.38893 c -0.69264,-2.55085 -1.54268,-4.06596 -3.43973,-5.72719 -0.52254,-0.40764 -1.689,-1.15723 -3.21145,-1.12882 -1.51788,-0.0663 -3.26683,0.94988 -4.20029,2.8465 -0.985,1.83155 -0.99976,4.19515 -0.6107,5.60118 0.40635,1.45036 1.08334,2.03854 1.05115,2.05514 0,-0.0444 0.52978,0.77703 1.66493,1.1432 1.09101,0.40796 2.89947,-0.006 3.63995,-2.00027 0.37105,-0.91706 0.43823,-2.10813 0.1729,-3.04207 -0.28438,-0.93393 -0.90851,-1.61177 -1.56069,-1.83759 -1.43992,-0.49218 -2.23798,0.95532 -2.31978,1.5939 -0.65396,2.59805 2.41457,3.9138 2.67562,0.87528 0.34905,1.38497 -0.7238,2.8127 -1.81643,2.54127 -1.09293,-0.0548 -2.17773,-1.80795 -1.73315,-3.74157 0.10483,-0.50493 0.37268,-1.26953 0.97436,-1.86789 0.598,-0.61374 1.53515,-0.89219 2.44617,-0.57322 0.91604,0.31099 1.7928,1.25675 2.18689,2.57411 0.37046,1.33075 0.2646,2.81239 -0.21602,4.03595 -0.97524,2.61209 -3.35157,3.13488 -4.65904,2.61593 -1.40522,-0.45807 -2.04869,-1.46951 -2.05858,-1.41721 0.0384,-0.0189 -0.79659,-0.7464 -1.30333,-2.54446 -0.48401,-1.75816 -0.44976,-4.49942 0.71183,-6.6943 1.08717,-2.24618 3.22356,-3.46307 4.94535,-3.3747 1.7485,-0.0303 3.08668,0.83314 3.68158,1.30427 2.186,1.89917 2.86919,4.07519 2.97846,6.76256"
         i:knockout="Off"
         style="fill:#ffffff;fill-opacity:0.94117647;fill-rule:nonzero;stroke:none;stroke-width:0.67697972;stroke-miterlimit:4;stroke-dasharray:none;stroke-opacity:1"
         inkscape:connector-curvature="0" />
      <g
         style="overflow:visible;fill:#ffffff;fill-opacity:1;fill-rule:nonzero;stroke:none;stroke-width:0.67697972;stroke-miterlimit:4;stroke-dasharray:none;stroke-opacity:1"
         id="g4928-4-2-5-3"
         transform="matrix(0,0.20993023,-0.21856713,0,348.12134,415.89965)">
        <path
           inkscape:connector-curvature="0"
           style="fill:#ffffff;fill-opacity:1"
           i:knockout="Off"
           d="M 48.724205,105.50664 C 31.997674,99.72689 22.062573,92.633305 11.169522,76.80279 8.4964589,72.441353 3.5811998,62.708007 3.7673521,50.003417 3.3322975,37.336996 9.9961379,22.741987 22.432788,14.95329 34.442763,6.7326682 49.94152,6.6101282 59.161292,9.8565932 c 9.510505,3.3910978 13.367412,9.0402618 13.476183,8.7710628 -0.290734,0.07031 5.095132,4.421699 7.49629,13.893886 C 82.808918,41.6261 80.091957,56.71732 67.017337,62.89685 61.003994,65.992633 53.19396,66.553131 47.069746,64.339275 40.945543,61.966697 36.500898,56.757497 35.02004,51.315252 31.792702,39.299731 41.284386,32.640077 45.471767,31.95703 62.507852,26.500724 71.135697,52.106778 51.211116,54.28448 60.292846,57.197461 69.654849,48.245576 67.874898,39.126967 67.515143,30.00634 56.019704,20.954024 43.340431,24.664544 c -3.31101,0.877912 -8.324571,3.109854 -12.248417,8.130211 -4.02424,4.990236 -5.850203,12.811071 -3.758606,20.412933 2.039313,7.644046 8.240908,14.960631 16.879213,18.249291 8.726156,3.091768 18.441643,2.207834 26.465021,-1.802034 C 87.805759,61.516704 91.233889,41.68637 87.830858,30.775774 84.827312,19.049535 78.194852,13.679624 78.537876,13.597253 78.414475,13.916675 73.643527,6.9496442 61.853184,2.7208033 50.324275,-1.3171872 32.349068,-1.0319108 17.956764,8.6612582 3.2277159,17.733675 -4.7517407,35.561079 -4.1723638,49.929084 -4.3710662,64.520078 1.2908926,75.687827 4.3801901,80.651928 16.83358,98.89318 31.102473,104.59459 48.724205,105.50664"
           id="path4252" />
        <path
           inkscape:connector-curvature="0"
           style="overflow:visible;fill:#ffffff;fill-opacity:1;fill-rule:nonzero;stroke:none;stroke-width:0.67697972;stroke-miterlimit:4;stroke-dasharray:none;stroke-opacity:1"
           i:knockout="Off"
           d="M -12.885235,109.71331 C -2.8480957,96.198921 9.4706624,88.171749 36.96199,79.370588 c 7.574095,-2.159736 24.477073,-6.131077 46.539917,-5.98067 21.996553,-0.351505 47.342303,5.032618 60.868173,15.080946 14.27597,9.703595 14.48878,22.225996 8.85096,29.675216 -5.88901,7.68411 -15.69937,10.80034 -15.23187,10.88822 -0.12209,-0.23489 -7.67872,4.11668 -24.12818,6.05671 -15.811007,2.16143 -42.018482,-0.0338 -52.749885,-10.59756 -5.376151,-4.85854 -6.349518,-11.16875 -2.504923,-16.11687 4.120244,-4.94812 13.166554,-8.539224 22.617581,-9.735708 20.866207,-2.607558 32.431397,5.061358 33.617557,8.444588 9.47546,13.7645 -34.992123,20.73547 -38.773935,4.63719 -5.058701,7.33767 10.487193,14.9018 26.322605,13.46367 15.8389,-0.29066 31.5592,-9.57853 25.11549,-19.82289 -1.52457,-2.67516 -5.40057,-6.725931 -14.11895,-9.896245 -8.66606,-3.251432 -22.247758,-4.726732 -35.449173,-3.036807 -13.274689,1.647679 -25.980711,6.658333 -31.691811,13.637752 -5.369162,7.05039 -3.834127,14.90013 3.12943,21.38271 14.1329,13.83886 48.570341,16.60865 67.517724,13.85913 20.36383,-2.42674 29.68924,-7.78552 29.83229,-7.50836 -0.55471,-0.0997 11.54426,-3.95445 18.88809,-13.48059 7.01239,-9.31492 6.51697,-23.838185 -10.3162,-35.466602 C 139.54166,72.953914 108.58251,66.506823 83.630993,66.974936 58.292217,66.814392 38.898253,71.389034 30.277557,73.885066 -1.400272,83.946921 -11.301364,95.475639 -12.885235,109.71331"
           id="path4252-9" />
      </g>
    </g>
  </g>
</svg>
